NACA 0012                                       
 Alfa =   4.53063 Re =  3000000.000 Xflap,Yflap =     0.000000    0.000000
#    x        y        Cp  
   1.00000  0.00126  0.21152
   0.99372  0.00214  0.19601
   0.98277  0.00365  0.16666
   0.96999  0.00539  0.13583
   0.95567  0.00731  0.10495
   0.94026  0.00934  0.07571
   0.92422  0.01142  0.04836
   0.90784  0.01350  0.02338
   0.89128  0.01556  0.00037
   0.87462  0.01759 -0.02105
   0.85793  0.01959 -0.04104
   0.84120  0.02155 -0.05987
   0.82446  0.02348 -0.07786
   0.80771  0.02537 -0.09509
   0.79095  0.02723 -0.11168
   0.77419  0.02905 -0.12794
   0.75742  0.03083 -0.14363
   0.74066  0.03257 -0.15920
   0.72389  0.03428 -0.17453
   0.70712  0.03594 -0.18957
   0.69035  0.03757 -0.20478
   0.67359  0.03916 -0.21982
   0.65683  0.04071 -0.23482
   0.64008  0.04221 -0.25001
   0.62333  0.04367 -0.26535
   0.60659  0.04509 -0.28055
   0.58987  0.04646 -0.29614
   0.57315  0.04778 -0.31180
   0.55645  0.04905 -0.32773
   0.53976  0.05026 -0.34397
   0.52309  0.05143 -0.36033
   0.50644  0.05253 -0.37723
   0.48980  0.05357 -0.39438
   0.47319  0.05455 -0.41173
   0.45660  0.05546 -0.42968
   0.44004  0.05630 -0.44791
   0.42351  0.05707 -0.46677
   0.40701  0.05776 -0.48553
   0.39055  0.05837 -0.50569
   0.37412  0.05889 -0.52569
   0.35774  0.05932 -0.54633
   0.34140  0.05965 -0.56778
   0.32511  0.05988 -0.58994
   0.30888  0.06000 -0.61256
   0.29272  0.06001 -0.63614
   0.27662  0.05989 -0.66033
   0.26060  0.05965 -0.68543
   0.24467  0.05927 -0.71165
   0.22884  0.05875 -0.73881
   0.21313  0.05807 -0.76669
   0.19755  0.05723 -0.79636
   0.18214  0.05622 -0.82646
   0.16693  0.05503 -0.85715
   0.15196  0.05365 -0.88790
   0.13730  0.05207 -0.92004
   0.12303  0.05029 -0.97010
   0.10929  0.04832 -1.04822
   0.09622  0.04618 -1.08584
   0.08399  0.04389 -1.13267
   0.07278  0.04150 -1.18360
   0.06271  0.03908 -1.23766
   0.05380  0.03667 -1.29264
   0.04603  0.03431 -1.34880
   0.03929  0.03203 -1.40356
   0.03346  0.02983 -1.45812
   0.02840  0.02771 -1.50881
   0.02399  0.02566 -1.55842
   0.02013  0.02367 -1.60077
   0.01674  0.02173 -1.64001
   0.01376  0.01982 -1.66798
   0.01114  0.01793 -1.68676
   0.00883  0.01606 -1.67941
   0.00682  0.01419 -1.65516
   0.00508  0.01231 -1.59165
   0.00360  0.01041 -1.48464
   0.00238  0.00851 -1.32186
   0.00141  0.00659 -1.10259
   0.00070  0.00467 -0.81873
   0.00025  0.00277 -0.50689
   0.00003  0.00091 -0.18109
   0.00003 -0.00091  0.12148
   0.00025 -0.00277  0.39926
   0.00070 -0.00467  0.63472
   0.00141 -0.00659  0.81107
   0.00238 -0.00851  0.92718
   0.00360 -0.01041  0.98504
   0.00508 -0.01231  0.99979
   0.00682 -0.01419  0.98199
   0.00883 -0.01606  0.94301
   0.01114 -0.01793  0.89084
   0.01376 -0.01982  0.82982
   0.01674 -0.02173  0.76620
   0.02013 -0.02367  0.70021
   0.02399 -0.02566  0.63396
   0.02840 -0.02771  0.56915
   0.03346 -0.02983  0.50519
   0.03929 -0.03203  0.44373
   0.04603 -0.03431  0.38414
   0.05380 -0.03667  0.32744
   0.06271 -0.03908  0.27423
   0.07278 -0.04150  0.22477
   0.08399 -0.04389  0.18037
   0.09622 -0.04618  0.14063
   0.10929 -0.04832  0.10581
   0.12303 -0.05029  0.07619
   0.13730 -0.05207  0.05057
   0.15196 -0.05365  0.02878
   0.16693 -0.05503  0.01025
   0.18214 -0.05622 -0.00508
   0.19755 -0.05723 -0.01812
   0.21313 -0.05807 -0.02906
   0.22884 -0.05875 -0.03797
   0.24467 -0.05927 -0.04556
   0.26060 -0.05965 -0.05160
   0.27662 -0.05989 -0.05659
   0.29272 -0.06001 -0.06027
   0.30888 -0.06000 -0.06326
   0.32511 -0.05988 -0.06526
   0.34140 -0.05965 -0.06679
   0.35774 -0.05932 -0.06730
   0.37412 -0.05889 -0.06768
   0.39055 -0.05837 -0.06732
   0.40701 -0.05776 -0.06667
   0.42351 -0.05707 -0.06554
   0.44004 -0.05630 -0.06407
   0.45660 -0.05546 -0.06235
   0.47319 -0.05455 -0.06033
   0.48980 -0.05357 -0.05818
   0.50644 -0.05253 -0.05572
   0.52309 -0.05143 -0.05314
   0.53976 -0.05026 -0.05021
   0.55645 -0.04905 -0.04728
   0.57315 -0.04778 -0.04423
   0.58987 -0.04646 -0.04093
   0.60659 -0.04509 -0.03756
   0.62333 -0.04367 -0.03397
   0.64008 -0.04221 -0.03042
   0.65683 -0.04071 -0.02664
   0.67359 -0.03916 -0.02267
   0.69035 -0.03757 -0.01872
   0.70712 -0.03594 -0.01437
   0.72389 -0.03428 -0.01006
   0.74066 -0.03257 -0.00545
   0.75742 -0.03083 -0.00071
   0.77419 -0.02905  0.00425
   0.79095 -0.02723  0.00941
   0.80771 -0.02537  0.01496
   0.82446 -0.02348  0.02029
   0.84120 -0.02155  0.02619
   0.85793 -0.01959  0.03173
   0.87462 -0.01759  0.03700
   0.89128 -0.01556  0.04135
   0.90784 -0.01350  0.04940
   0.92422 -0.01142  0.08716
   0.94026 -0.00934  0.10826
   0.95567 -0.00731  0.12388
   0.96999 -0.00539  0.14219
   0.98277 -0.00365  0.16565
   0.99372 -0.00214  0.19864
   1.00000 -0.00126  0.21152
