Test Foil                                       
 Alfa =   2.97074 Re =  3000000.000 Xflap,Yflap =     0.000000    0.000000
#    x        y        Cp  
   1.00000  0.00115  0.43520
   0.99000  0.00250  0.28823
   0.98000  0.00393  0.25871
   0.97000  0.00545  0.23215
   0.96000  0.00705  0.20925
   0.95000  0.00871  0.18927
   0.94000  0.01043  0.16969
   0.93000  0.01220  0.15078
   0.92000  0.01403  0.13236
   0.91000  0.01589  0.11331
   0.90000  0.01780  0.09542
   0.89000  0.01973  0.07643
   0.88000  0.02170  0.05811
   0.87000  0.02368  0.04001
   0.86000  0.02568  0.02119
   0.85000  0.02770  0.00265
   0.84000  0.02972 -0.01626
   0.83000  0.03175 -0.03449
   0.82000  0.03379 -0.05314
   0.81000  0.03582 -0.07207
   0.80000  0.03785 -0.09046
   0.79000  0.03987 -0.10895
   0.78000  0.04188 -0.12765
   0.77000  0.04388 -0.14609
   0.76000  0.04586 -0.16429
   0.75000  0.04782 -0.18323
   0.74000  0.04977 -0.20052
   0.73000  0.05169 -0.22001
   0.72000  0.05359 -0.23733
   0.71000  0.05546 -0.25585
   0.70000  0.05730 -0.27350
   0.69000  0.05912 -0.29138
   0.68000  0.06090 -0.30936
   0.67000  0.06265 -0.32699
   0.66000  0.06437 -0.34400
   0.65000  0.06605 -0.36223
   0.64000  0.06769 -0.37930
   0.63000  0.06930 -0.39663
   0.62000  0.07086 -0.41368
   0.61000  0.07239 -0.43079
   0.60000  0.07387 -0.44781
   0.59000  0.07530 -0.46433
   0.58000  0.07670 -0.48146
   0.57000  0.07804 -0.49786
   0.56000  0.07934 -0.51453
   0.55000  0.08059 -0.53074
   0.54000  0.08179 -0.54702
   0.53000  0.08294 -0.56351
   0.52000  0.08404 -0.57962
   0.51000  0.08508 -0.59504
   0.50000  0.08607 -0.61139
   0.49000  0.08700 -0.62674
   0.48000  0.08788 -0.64265
   0.47000  0.08869 -0.65784
   0.46000  0.08945 -0.67302
   0.45000  0.09014 -0.68836
   0.44000  0.09077 -0.70283
   0.43000  0.09133 -0.71750
   0.42000  0.09183 -0.73201
   0.41000  0.09225 -0.74629
   0.40000  0.09261 -0.76024
   0.39000  0.09290 -0.77332
   0.38000  0.09311 -0.78653
   0.37000  0.09324 -0.80009
   0.36000  0.09330 -0.81162
   0.35000  0.09327 -0.82392
   0.34000  0.09317 -0.83543
   0.33000  0.09298 -0.84636
   0.32000  0.09270 -0.85662
   0.31000  0.09234 -0.86624
   0.30000  0.09188 -0.87521
   0.29000  0.09133 -0.88370
   0.28000  0.09068 -0.89110
   0.27000  0.08993 -0.89740
   0.26000  0.08908 -0.90337
   0.25000  0.08813 -0.90807
   0.24000  0.08707 -0.91148
   0.23000  0.08589 -0.91436
   0.22000  0.08461 -0.91576
   0.21000  0.08321 -0.91623
   0.20000  0.08168 -0.91538
   0.19000  0.08004 -0.91265
   0.18000  0.07826 -0.90965
   0.17000  0.07636 -0.90426
   0.16000  0.07432 -0.89876
   0.15000  0.07213 -0.89076
   0.14000  0.06981 -0.88230
   0.13000  0.06732 -0.87174
   0.12000  0.06468 -0.86037
   0.11000  0.06187 -0.84759
   0.10000  0.05888 -0.83445
   0.09800  0.05826 -0.83261
   0.09600  0.05764 -0.82562
   0.09400  0.05700 -0.82733
   0.09200  0.05636 -0.82204
   0.09000  0.05570 -0.81919
   0.08800  0.05504 -0.81570
   0.08600  0.05437 -0.81355
   0.08400  0.05369 -0.81178
   0.08200  0.05301 -0.80588
   0.08000  0.05231 -0.80597
   0.07800  0.05161 -0.80015
   0.07600  0.05089 -0.79766
   0.07400  0.05017 -0.79493
   0.07200  0.04943 -0.79013
   0.07000  0.04869 -0.79029
   0.06800  0.04793 -0.78371
   0.06600  0.04716 -0.78298
   0.06400  0.04639 -0.77815
   0.06200  0.04560 -0.77506
   0.06000  0.04479 -0.77229
   0.05800  0.04398 -0.76937
   0.05600  0.04315 -0.76666
   0.05400  0.04231 -0.76275
   0.05200  0.04145 -0.75975
   0.05000  0.04058 -0.75483
   0.04800  0.03970 -0.75490
   0.04600  0.03879 -0.74834
   0.04400  0.03787 -0.74732
   0.04200  0.03694 -0.74307
   0.04000  0.03598 -0.74130
   0.03800  0.03500 -0.73701
   0.03600  0.03400 -0.73287
   0.03400  0.03297 -0.73089
   0.03200  0.03192 -0.72530
   0.03000  0.03084 -0.72429
   0.02800  0.02972 -0.71925
   0.02600  0.02858 -0.71376
   0.02400  0.02739 -0.71036
   0.02200  0.02616 -0.70357
   0.02000  0.02488 -0.69836
   0.01800  0.02354 -0.68822
   0.01600  0.02214 -0.67908
   0.01400  0.02065 -0.66574
   0.01200  0.01907 -0.64599
   0.01000  0.01735 -0.62208
   0.00800  0.01548 -0.58132
   0.00600  0.01336 -0.52263
   0.00400  0.01088 -0.41230
   0.00200  0.00767 -0.26885
   0.00000  0.00000  0.55379
   0.00200 -0.00762  0.99977
   0.00400 -0.01075  0.96449
   0.00600 -0.01312  0.89588
   0.00800 -0.01511  0.82444
   0.01000 -0.01685  0.75845
   0.01200 -0.01840  0.69709
   0.01400 -0.01982  0.64255
   0.01600 -0.02113  0.59398
   0.01800 -0.02235  0.54886
   0.02000 -0.02349  0.50943
   0.02200 -0.02457  0.47291
   0.02400 -0.02558  0.44057
   0.02600 -0.02655  0.40924
   0.02800 -0.02748  0.38263
   0.03000 -0.02836  0.35712
   0.03200 -0.02921  0.33278
   0.03400 -0.03002  0.31219
   0.03600 -0.03081  0.29016
   0.03800 -0.03156  0.27209
   0.04000 -0.03229  0.25534
   0.04200 -0.03299  0.23795
   0.04400 -0.03367  0.22351
   0.04600 -0.03433  0.20715
   0.04800 -0.03497  0.19584
   0.05000 -0.03559  0.18093
   0.05200 -0.03620  0.16975
   0.05400 -0.03678  0.15864
   0.05600 -0.03735  0.14721
   0.05800 -0.03790  0.13729
   0.06000 -0.03844  0.12705
   0.06200 -0.03897  0.11790
   0.06400 -0.03948  0.10881
   0.06600 -0.03998  0.10070
   0.06800 -0.04046  0.09240
   0.07000 -0.04094  0.08649
   0.07200 -0.04140  0.07599
   0.07400 -0.04185  0.07153
   0.07600 -0.04230  0.06336
   0.07800 -0.04273  0.05734
   0.08000 -0.04315  0.05240
   0.08200 -0.04356  0.04492
   0.08400 -0.04396  0.04102
   0.08600 -0.04436  0.03396
   0.08800 -0.04474  0.02958
   0.09000 -0.04512  0.02413
   0.09200 -0.04549  0.01889
   0.09400 -0.04585  0.01598
   0.09600 -0.04620  0.00987
   0.09800 -0.04655  0.00590
   0.10000 -0.04689  0.00223
   0.11000 -0.04848 -0.01689
   0.12000 -0.04992 -0.03226
   0.13000 -0.05121 -0.04542
   0.14000 -0.05239 -0.05639
   0.15000 -0.05344 -0.06598
   0.16000 -0.05440 -0.07424
   0.17000 -0.05526 -0.08133
   0.18000 -0.05603 -0.08716
   0.19000 -0.05671 -0.09266
   0.20000 -0.05732 -0.09687
   0.21000 -0.05786 -0.10046
   0.22000 -0.05833 -0.10398
   0.23000 -0.05873 -0.10669
   0.24000 -0.05908 -0.10893
   0.25000 -0.05936 -0.11059
   0.26000 -0.05959 -0.11192
   0.27000 -0.05977 -0.11314
   0.28000 -0.05989 -0.11394
   0.29000 -0.05997 -0.11418
   0.30000 -0.06000 -0.11467
   0.31000 -0.05998 -0.11433
   0.32000 -0.05993 -0.11421
   0.33000 -0.05983 -0.11362
   0.34000 -0.05968 -0.11287
   0.35000 -0.05950 -0.11199
   0.36000 -0.05929 -0.11105
   0.37000 -0.05903 -0.10927
   0.38000 -0.05874 -0.10830
   0.39000 -0.05842 -0.10638
   0.40000 -0.05806 -0.10433
   0.41000 -0.05767 -0.10296
   0.42000 -0.05725 -0.10044
   0.43000 -0.05680 -0.09865
   0.44000 -0.05631 -0.09580
   0.45000 -0.05580 -0.09347
   0.46000 -0.05526 -0.09090
   0.47000 -0.05470 -0.08845
   0.48000 -0.05411 -0.08526
   0.49000 -0.05349 -0.08251
   0.50000 -0.05285 -0.07966
   0.51000 -0.05218 -0.07613
   0.52000 -0.05149 -0.07311
   0.53000 -0.05077 -0.06976
   0.54000 -0.05004 -0.06633
   0.55000 -0.04928 -0.06288
   0.56000 -0.04850 -0.05930
   0.57000 -0.04771 -0.05579
   0.58000 -0.04689 -0.05187
   0.59000 -0.04605 -0.04834
   0.60000 -0.04520 -0.04452
   0.61000 -0.04433 -0.04020
   0.62000 -0.04344 -0.03669
   0.63000 -0.04253 -0.03223
   0.64000 -0.04161 -0.02857
   0.65000 -0.04068 -0.02421
   0.66000 -0.03972 -0.02008
   0.67000 -0.03876 -0.01579
   0.68000 -0.03778 -0.01148
   0.69000 -0.03679 -0.00690
   0.70000 -0.03579 -0.00292
   0.71000 -0.03477  0.00195
   0.72000 -0.03374  0.00622
   0.73000 -0.03270  0.01103
   0.74000 -0.03165  0.01527
   0.75000 -0.03059  0.02067
   0.76000 -0.02952  0.02489
   0.77000 -0.02844  0.03036
   0.78000 -0.02735  0.03482
   0.79000 -0.02625  0.04023
   0.80000 -0.02514  0.04532
   0.81000 -0.02402  0.05084
   0.82000 -0.02289  0.05619
   0.83000 -0.02176  0.06192
   0.84000 -0.02062  0.06799
   0.85000 -0.01947  0.07387
   0.86000 -0.01831  0.08008
   0.87000 -0.01714  0.08688
   0.88000 -0.01596  0.09435
   0.89000 -0.01478  0.10178
   0.90000 -0.01359  0.10998
   0.91000 -0.01239  0.11812
   0.92000 -0.01118  0.12846
   0.93000 -0.00996  0.13908
   0.94000 -0.00873  0.15058
   0.95000 -0.00750  0.16513
   0.96000 -0.00625  0.18168
   0.97000 -0.00499  0.20198
   0.98000 -0.00372  0.23056
   0.99000 -0.00244  0.26375
   1.00000 -0.00115  0.43520
